…
To extract columns from a tibble we can use the `select()`.

``` r
sub_res <- res_tableOE %>%
    select(gene, baseMean, log2FoldChange, padj)
```

Conversely, you can remove columns you don't want with negative selection.

``` r
res_tableOE %>%
    select(-c(lfcSE, stat, pvalue))
```

    ## # A tibble: 23,368 x 4
    ##         gene    baseMean log2FoldChange         padj
    ##          <chr>       <dbl>          <dbl>        <dbl>
    ##  1 1/2-SBSRNA4  45.6520399    0.266586547 2.708964e-01
    ##  2        A1BG  61.0931017    0.208057615 3.638671e-01
    ##  3    A1BG-AS1 175.6658069   -0.051825739 7.837586e-01
    ##  4        A1CF   0.2376919    0.012557390           NA
    ##  5       A2LD1  89.6179845    0.343006364 7.652553e-02
    ##  6         A2M   5.8600841   -0.270449534 2.318666e-01
    ##  7       A2ML1   2.4240553    0.236041349           NA
    ##  8       A2MP1   1.3203237    0.079525469           NA
    ##  9      A4GALT  64.5409534    0.795049160 2.875565e-05
    ## 10       A4GNT   0.1912781    0.009458374           NA
    ## # ... with 23,358 more rows

`arrange()`
-----------

Note that the rows are sorted by the gene symbol. Let's fix that and sort them by adjusted P value instead with `arrange()`.

``` r
sub_res <- arrange(sub_res, padj)
sub_res
```

    ## # A tibble: 23,368 x 4
    ##      gene   baseMean log2FoldChange          padj
    ##       <chr>      <dbl>          <dbl>         <dbl>
    ##  1    MOV10 21681.7998      4.7695983  0.000000e+00
    ##  2     H1F0  7881.0811      1.5250811 2.007733e-162
    ##  3    HSPA6   168.2522      4.4993734 1.969313e-134
    ##  4 HIST1H1C  1741.3830      1.4868361 5.116720e-101
    ##  5    TXNIP  5133.7486      1.3868320  4.882246e-90
    ##  6    NEAT1 21973.7061      0.9087853  2.269464e-83
    ##  7    KLF10  1694.2109      1.2093969  9.257431e-78
    ##  8   INSIG1 11872.5106      1.2260848  8.853278e-70
    ##  9    NR1D1   969.9119      1.5236259  1.376753e-64
    ## 10    WDFY1  1422.7361      1.0629160  1.298076e-61
    ## # ... with 23,358 more rows
…
`mutate()`
----------

`mutate()` enables you to create a new column from an existing column. Let's generate log10 calculations of our baseMeans for each gene.

``` r
sub_res %>%
    mutate(log10BaseMean = log10(baseMean)) %>%
    select(gene, baseMean, log10BaseMean)
```

    ## # A tibble: 4,909 x 3
    ##      gene   baseMean log10BaseMean
    ##       <chr>      <dbl>         <dbl>
    ##  1    MOV10 21681.7998      4.336095
    ##  2     H1F0  7881.0811      3.896586
    ##  3    HSPA6   168.2522      2.225961
    ##  4 HIST1H1C  1741.3830      3.240894
    ##  5    TXNIP  5133.7486      3.710435
    ##  6    NEAT1 21973.7061      4.341903
    ##  7    KLF10  1694.2109      3.228967
    ##  8   INSIG1 11872.5106      4.074543
    ##  9    NR1D1   969.9119      2.986732
    ## 10    WDFY1  1422.7361      3.153124
    ## # ... with 4,899 more rows

`rename()`
----------

You can quickly rename an existing column with `rename()`. The syntax is `new_name` = `old_name`.

``` r
sub_res %>%
    rename(symbol = gene)
```

    ## # A tibble: 4,909 x 4
    ##        gene   baseMean log2FoldChange          padj
    ##       <chr>      <dbl>          <dbl>         <dbl>
    ##  1    MOV10 21681.7998      4.7695983  0.000000e+00
    ##  2     H1F0  7881.0811      1.5250811 2.007733e-162
    ##  3    HSPA6   168.2522      4.4993734 1.969313e-134
    ##  4 HIST1H1C  1741.3830      1.4868361 5.116720e-101
    ##  5    TXNIP  5133.7486      1.3868320  4.882246e-90
    ##  6    NEAT1 21973.7061      0.9087853  2.269464e-83
    ##  7    KLF10  1694.2109      1.2093969  9.257431e-78
    ##  8   INSIG1 11872.5106      1.2260848  8.853278e-70
    ##  9    NR1D1   969.9119      1.5236259  1.376753e-64
    ## 10    WDFY1  1422.7361      1.0629160  1.298076e-61
    ## # ... with 4,899 more rows
…
